digraph "Drone_body"
{
  edge [fontname="Helvetica",fontsize="10",labelfontname="Helvetica",labelfontsize="10"];
  node [fontname="Helvetica",fontsize="10",shape=record];
  Node0 [label="Drone_body",height=0.2,width=0.4,color="black", fillcolor="grey75", style="filled", fontcolor="black"];
  Node1 -> Node0 [dir="back",color="midnightblue",fontsize="10",style="solid",fontname="Helvetica"];
  Node1 [label="Cuboid",height=0.2,width=0.4,color="black", fillcolor="white", style="filled",URL="$classCuboid.html",tooltip="Klasa, która obsługuje prostopadlosciany. "];
  Node2 -> Node1 [dir="back",color="midnightblue",fontsize="10",style="solid",fontname="Helvetica"];
  Node2 [label="Shape\< 20 \>",height=0.2,width=0.4,color="black", fillcolor="white", style="filled",URL="$classShape.html"];
  Node3 -> Node2 [dir="back",color="midnightblue",fontsize="10",style="solid",fontname="Helvetica"];
  Node3 [label="base_Shape",height=0.2,width=0.4,color="black", fillcolor="white", style="filled",URL="$classbase__Shape.html",tooltip="Klasa bazowa do klasy shape, ktora pozwala uzywac Shared pointerow do przeszod Zawiera wirtualne funk..."];
  Node0 -> Node4 [dir="back",color="midnightblue",fontsize="10",style="solid",fontname="Helvetica"];
  Node4 [label="Drone",height=0.2,width=0.4,color="black", fillcolor="white", style="filled",URL="$classDrone.html",tooltip="Klasa dron, ktora sklada poszczegolne jego czeci w calosc i zajmuje sie wyswietlaniem jego ruchow..."];
}
