digraph "Rod"
{
  edge [fontname="Helvetica",fontsize="10",labelfontname="Helvetica",labelfontsize="10"];
  node [fontname="Helvetica",fontsize="10",shape=record];
  Node3 [label="Rod",height=0.2,width=0.4,color="black", fillcolor="grey75", style="filled", fontcolor="black"];
  Node4 -> Node3 [dir="back",color="midnightblue",fontsize="10",style="solid",fontname="Helvetica"];
  Node4 [label="Shape\< 2 \>",height=0.2,width=0.4,color="black", fillcolor="white", style="filled",URL="$classShape.html"];
  Node5 -> Node4 [dir="back",color="midnightblue",fontsize="10",style="solid",fontname="Helvetica"];
  Node5 [label="base_Shape",height=0.2,width=0.4,color="black", fillcolor="white", style="filled",URL="$classbase__Shape.html",tooltip="Klasa bazowa do klasy shape, ktora pozwala uzywac Shared pointerow do przeszod Zawiera wirtualne funk..."];
}
