digraph "Water"
{
  edge [fontname="Helvetica",fontsize="10",labelfontname="Helvetica",labelfontsize="10"];
  node [fontname="Helvetica",fontsize="10",shape=record];
  Node0 [label="Water",height=0.2,width=0.4,color="black", fillcolor="grey75", style="filled", fontcolor="black"];
  Node1 -> Node0 [dir="back",color="midnightblue",fontsize="10",style="solid",fontname="Helvetica"];
  Node1 [label="Shape\< 27 \>",height=0.2,width=0.4,color="black", fillcolor="white", style="filled",URL="$classShape.html"];
  Node2 -> Node1 [dir="back",color="midnightblue",fontsize="10",style="solid",fontname="Helvetica"];
  Node2 [label="base_Shape",height=0.2,width=0.4,color="black", fillcolor="white", style="filled",URL="$classbase__Shape.html",tooltip="Klasa bazowa do klasy shape, ktora pozwala uzywac Shared pointerow do przeszod Zawiera wirtualne funk..."];
}
